{
  "content": [
    {
      "id": 1,
      "name": "Задание 1",
      "description": "Напишите программу, вычисляющую сумму двух чисел.",
      "testCases": [
        {
          "id": 1,
          "input": "2 3",
          "output": "5"
        },
        {
          "id": 2,
          "input": "10 20",
          "output": "30"
        },
        {
          "id": 3,
          "input": "5 7",
          "output": "12"
        }
      ]
    },
    {
      "id": 2,
      "name": "Задание 2",
      "description": "Реализуйте алгоритм сортировки пузырьком.",
      "testCases": [
        {
          "id": 5,
          "input": "9 4 6 2 1",
          "output": "1 2 4 6 9"
        },
        {
          "id": 4,
          "input": "5 3 8 1 2",
          "output": "1 2 3 5 8"
        }
      ]
    },
    {
      "id": 3,
      "name": "Задание 1",
      "description": "Напишите функцию для нахождения наибольшего общего делителя.",
      "testCases": [
        {
          "id": 7,
          "input": "100 75",
          "output": "25"
        },
        {
          "id": 6,
          "input": "36 48",
          "output": "12"
        }
      ]
    },
    {
      "id": 4,
      "name": "Задание 1",
      "description": "Реализуйте структуру данных \"Очередь\" на основе массива.",
      "testCases": [
        {
          "id": 8,
          "input": "5 push 3 push 2 pop",
          "output": "3"
        },
        {
          "id": 9,
          "input": "enqueue 10 enqueue 20 dequeue",
          "output": "10"
        }
      ]
    },
    {
      "id": 5,
      "name": "Задание 2",
      "description": "Напишите программу, определяющую, является ли число простым.",
      "testCases": [
        {
          "id": 10,
          "input": "7",
          "output": "true"
        },
        {
          "id": 11,
          "input": "10",
          "output": "false"
        },
        {
          "id": 12,
          "input": "17",
          "output": "true"
        }
      ]
    }
  ],
  "page": {
    "size": 5,
    "number": 0,
    "totalElements": 11,
    "totalPages": 3
  }
}
